\relax 
\@writefile{toc}{\contentsline {section}{\numberline {1}Evaluation of a learning algorithm}{1}}
\@writefile{toc}{\contentsline {subsection}{\numberline {1.1}Debugging learning algorithm}{1}}
\@writefile{toc}{\contentsline {subsection}{\numberline {1.2}Evaluating hypothesis}{1}}
\@writefile{toc}{\contentsline {subsection}{\numberline {1.3}Model selection}{2}}
\@writefile{toc}{\contentsline {section}{\numberline {2}Bias VS variance}{2}}
\@writefile{toc}{\contentsline {subsection}{\numberline {2.1}Diagnosis: Bias VS variance}{2}}
\@writefile{lof}{\contentsline {figure}{\numberline {1}{\ignorespaces Train and CV/test error for different degree value $d$}}{3}}
\newlabel{im:diagnosis}{{1}{3}}
\@writefile{toc}{\contentsline {subsection}{\numberline {2.2}Regularization: Bias VS variance}{3}}
\@writefile{toc}{\contentsline {subsection}{\numberline {2.3}Learning curves: Bias VS variance}{4}}
\@writefile{lof}{\contentsline {figure}{\numberline {2}{\ignorespaces Train and train/CV error against number of examples $m$}}{4}}
\newlabel{im:diagM}{{2}{4}}
\@writefile{lof}{\contentsline {figure}{\numberline {3}{\ignorespaces Train and test/CV error against number of examples $m$, when bias large}}{4}}
\newlabel{im:diagMBias}{{3}{4}}
\@writefile{lof}{\contentsline {figure}{\numberline {4}{\ignorespaces Train and test/CV error against number of examples $m$, when variance large}}{5}}
\newlabel{im:diagMVariance}{{4}{5}}
\@writefile{toc}{\contentsline {subsection}{\numberline {2.4}Decision}{6}}
\@writefile{toc}{\contentsline {section}{\numberline {3}Machine learning system design}{6}}
\@writefile{toc}{\contentsline {subsection}{\numberline {3.1}Example Building spam classifier}{7}}
\@writefile{toc}{\contentsline {subsubsection}{\numberline {3.1.1}Prioritize on what to work on}{7}}
\@writefile{toc}{\contentsline {subsubsection}{\numberline {3.1.2}Error analysis}{7}}
\@writefile{toc}{\contentsline {subsection}{\numberline {3.2}Error metrics}{7}}
\@writefile{lof}{\contentsline {figure}{\numberline {5}{\ignorespaces confusion matrix of two classes}}{8}}
\newlabel{im:confusion}{{5}{8}}
\@writefile{lof}{\contentsline {figure}{\numberline {6}{\ignorespaces Recall vs precision with different threshold $T$}}{9}}
\newlabel{im:RvsP}{{6}{9}}
\@writefile{toc}{\contentsline {subsection}{\numberline {3.3}Data for machine learning}{9}}
