\relax 
\@writefile{toc}{\contentsline {section}{\numberline {1}Anomaly detection}{1}}
\@writefile{toc}{\contentsline {subsection}{\numberline {1.1}Density estimation}{1}}
\newlabel{eq:mu1}{{1}{1}}
\newlabel{eq:sigma1}{{2}{1}}
\newlabel{eq:density}{{3}{1}}
\newlabel{eq:mun}{{4}{2}}
\newlabel{eq:sigman}{{5}{2}}
\@writefile{toc}{\contentsline {subsection}{\numberline {1.2}Anomaly detection system}{2}}
\@writefile{lof}{\contentsline {figure}{\numberline {1}{\ignorespaces Adding features (e.g. $x_2=x_1^2$) can reveal anomalies.}}{3}}
\newlabel{im:newfeat}{{1}{3}}
\@writefile{toc}{\contentsline {subsection}{\numberline {1.3}Multivariate Gaussian}{4}}
\@writefile{lof}{\contentsline {figure}{\numberline {2}{\ignorespaces Modeling density distribution with $p(x_1,x_2) = p(x_1)p(x_2)$ means that we assume that features are independent (no correlation)}}{4}}
\newlabel{im:independentModel}{{2}{4}}
\newlabel{im:diag11}{{1.3}{5}}
\newlabel{im:diag105}{{1.3}{5}}
\newlabel{im:full}{{1.3}{5}}
\@writefile{toc}{\contentsline {section}{\numberline {2}Recommendation systems}{6}}
\@writefile{toc}{\contentsline {subsection}{\numberline {2.1}Prediction of ratings}{6}}
\newlabel{eq:ContBasedCost}{{12}{7}}
\@writefile{toc}{\contentsline {subsection}{\numberline {2.2}Collaborative filtering}{7}}
\newlabel{eq:collabfiltcost1}{{14}{7}}
\newlabel{eq:collabfilt2}{{15}{8}}
