\relax 
\@writefile{toc}{\contentsline {section}{\numberline {1}Generative VS discriminative learning algorithms}{2}}
\newlabel{eq:bayes}{{1}{2}}
\newlabel{eq:argmax}{{2}{2}}
\@writefile{toc}{\contentsline {section}{\numberline {2}Gaussian discriminant analysis}{2}}
\@writefile{toc}{\contentsline {subsection}{\numberline {2.1}About multivariate Gaussian}{2}}
\@writefile{toc}{\contentsline {subsection}{\numberline {2.2}Gaussian discriminant analysis model}{3}}
\@writefile{toc}{\contentsline {subsection}{\numberline {2.3}Connection with logistic regression}{4}}
\@writefile{toc}{\contentsline {section}{\numberline {3}Naive Bayes}{4}}
\@writefile{toc}{\contentsline {subsection}{\numberline {3.1}Laplace smoothing}{6}}
\@writefile{toc}{\contentsline {subsection}{\numberline {3.2}Advanced model for text classification}{6}}
