\relax 
\@writefile{toc}{\contentsline {section}{\numberline {1}Classification and representation}{2}}
\@writefile{lof}{\contentsline {figure}{\numberline {1}{\ignorespaces Applying linear regression to classification problem. Right: correct. Left: outlier problem}}{2}}
\newlabel{im:linregclas}{{1}{2}}
\@writefile{toc}{\contentsline {subsection}{\numberline {1.1}Logistic regression hypothesis}{2}}
\newlabel{eq:logreghyp}{{1}{2}}
\@writefile{lof}{\contentsline {figure}{\numberline {2}{\ignorespaces sigmoid function}}{3}}
\newlabel{im:sigmoid}{{2}{3}}
\@writefile{toc}{\contentsline {subsection}{\numberline {1.2}Interpretation of hypothesis}{3}}
\@writefile{toc}{\contentsline {subsection}{\numberline {1.3}Decision boundary}{3}}
\@writefile{lof}{\contentsline {figure}{\numberline {3}{\ignorespaces First: linear decision boundary. Second: nonlinear boundary. Third: high polynomial decision boundary}}{4}}
\newlabel{im:decbond}{{3}{4}}
\@writefile{toc}{\contentsline {section}{\numberline {2}Logistic regression model}{4}}
\newlabel{eq:gencost}{{3}{4}}
\newlabel{eq:logisticL}{{7}{5}}
\@writefile{toc}{\contentsline {subsection}{\numberline {2.1}Cost function}{5}}
\newlabel{eq:cost}{{9}{5}}
\@writefile{lof}{\contentsline {figure}{\numberline {4}{\ignorespaces Cost function. Black: $y=0$. Green: $y=1$}}{5}}
\newlabel{im:cost}{{4}{5}}
\newlabel{eq:logregfull}{{10}{5}}
\@writefile{toc}{\contentsline {subsection}{\numberline {2.2}Gradient descend}{6}}
\newlabel{eq:batch}{{14}{6}}
\newlabel{eq:batchvector}{{17}{6}}
\@writefile{toc}{\contentsline {subsection}{\numberline {2.3}Advanced optimization with Newton's method}{6}}
\@writefile{lof}{\contentsline {figure}{\numberline {5}{\ignorespaces Problem of finding minimum using Newton's method}}{7}}
\newlabel{im:newton}{{5}{7}}
\@writefile{toc}{\contentsline {subsection}{\numberline {2.4}Advanced optimization in practice}{7}}
\newlabel{ch:advopt}{{2.4}{7}}
\@writefile{toc}{\contentsline {section}{\numberline {3}Digression: perceptron learning algorithm}{8}}
\@writefile{toc}{\contentsline {section}{\numberline {4}Multiclass classification}{8}}
\@writefile{toc}{\contentsline {section}{\numberline {5}Problem of overfitting}{9}}
\@writefile{toc}{\contentsline {subsection}{\numberline {5.1}Regularization and cost function}{9}}
\@writefile{toc}{\contentsline {subsubsection}{\numberline {5.1.1}Regularized linear regression}{10}}
\newlabel{eq:reglinreg}{{24}{10}}
\newlabel{eq:gradregreg}{{26}{10}}
\@writefile{toc}{\contentsline {subsubsection}{\numberline {5.1.2}Regularized logistic regression}{11}}
\newlabel{eq:logregfullreg}{{29}{11}}
\@writefile{toc}{\contentsline {section}{\numberline {6}Generalized linear models}{11}}
\@writefile{toc}{\contentsline {subsection}{\numberline {6.1}Exponential family}{11}}
\newlabel{eq:expfam}{{32}{12}}
\@writefile{toc}{\contentsline {subsection}{\numberline {6.2}Constructing GLMs}{13}}
\@writefile{toc}{\contentsline {subsubsection}{\numberline {6.2.1}Linear regression model}{13}}
\@writefile{toc}{\contentsline {subsubsection}{\numberline {6.2.2}Logistic regression model}{14}}
\@writefile{toc}{\contentsline {subsubsection}{\numberline {6.2.3}Softmax regression}{14}}
\@writefile{toc}{\contentsline {subsection}{\numberline {6.3}Summary of GLM}{14}}
