\relax 
\@writefile{toc}{\contentsline {section}{\numberline {1}Clustering}{1}}
\@writefile{toc}{\contentsline {subsection}{\numberline {1.1}Unsupervised learning intro}{1}}
\@writefile{toc}{\contentsline {subsection}{\numberline {1.2}K means}{1}}
\@writefile{toc}{\contentsline {subsection}{\numberline {1.3}Optimization objective}{1}}
\newlabel{eq:optimObj}{{1}{1}}
\@writefile{toc}{\contentsline {subsection}{\numberline {1.4}Random initialization of cluster centroids}{2}}
\@writefile{toc}{\contentsline {subsection}{\numberline {1.5}Choosing number of clusters}{2}}
\@writefile{lof}{\contentsline {figure}{\numberline {1}{\ignorespaces Cost function for different number of clusters K. Optimal number of clusters is in 'elbow' area.}}{2}}
\newlabel{im:elbow}{{1}{2}}
\@writefile{toc}{\contentsline {section}{\numberline {2}Dimensionality reduction}{3}}
\@writefile{toc}{\contentsline {subsection}{\numberline {2.1}Motivation: Data compression and visualization}{3}}
\@writefile{lof}{\contentsline {figure}{\numberline {2}{\ignorespaces Reduction from 2D to 1D. Left: original dataset and optimal line for projection. Right: dataset projected to 1D}}{3}}
\newlabel{im:dimred}{{2}{3}}
\@writefile{toc}{\contentsline {subsection}{\numberline {2.2}PCA}{3}}
\@writefile{lof}{\contentsline {figure}{\numberline {3}{\ignorespaces PCA is minimizing projection error shown in green.}}{4}}
\newlabel{im:problem}{{3}{4}}
\@writefile{lof}{\contentsline {figure}{\numberline {4}{\ignorespaces Idea is to maximize variation of projected data. SO green direction is better than pink direction.}}{4}}
\newlabel{im:maxvar}{{4}{4}}
\@writefile{lof}{\contentsline {figure}{\numberline {5}{\ignorespaces Left: PCA is minimizing projection error shown in green. Right: Linear regression is minimizing different error.}}{6}}
\newlabel{im:pcaVSlg}{{5}{6}}
\@writefile{toc}{\contentsline {subsection}{\numberline {2.3}PCA algorithm}{6}}
\newlabel{eq:mean}{{4}{6}}
\@writefile{toc}{\contentsline {subsection}{\numberline {2.4}Applying PCA}{7}}
\@writefile{lof}{\contentsline {figure}{\numberline {6}{\ignorespaces Left: original data and projection plane. Middle: dimensionality reduction. Right: reconstruction }}{7}}
\newlabel{im:reconstruction}{{6}{7}}
\@writefile{toc}{\contentsline {subsection}{\numberline {2.5}Using PCA}{8}}
\@writefile{toc}{\contentsline {subsection}{\numberline {2.6}SVD in PCA}{8}}
\@writefile{toc}{\contentsline {subsection}{\numberline {2.7}Applications of PCA}{9}}
