\relax 
\@writefile{toc}{\contentsline {section}{\numberline {1}Problems with ICA}{1}}
\@writefile{toc}{\contentsline {section}{\numberline {2}Revising some probability}{1}}
\@writefile{toc}{\contentsline {section}{\numberline {3}Algorithm}{2}}
