\relax 
\@writefile{toc}{\contentsline {section}{\numberline {1}Restrictions on covariance matrix}{1}}
\@writefile{toc}{\contentsline {subsection}{\numberline {1.1}Diagonal covariance matrix}{1}}
\@writefile{toc}{\contentsline {subsection}{\numberline {1.2}Diagonal covariance matrix with equal diagonal element}{1}}
\@writefile{toc}{\contentsline {subsection}{\numberline {1.3}Discussion}{2}}
\@writefile{toc}{\contentsline {section}{\numberline {2}Marginals and conditionals}{2}}
\@writefile{toc}{\contentsline {section}{\numberline {3}Factor analysis model}{2}}
\@writefile{lof}{\contentsline {figure}{\numberline {1}{\ignorespaces Upper left is datapoints samples from Gaussian $z$. Lower left is mapping $\mu + \Delta z$. Lower right is adding noise $\epsilon $. Blue circles represent datapoints $x$}}{3}}
