\relax 
\@writefile{toc}{\contentsline {section}{\numberline {1}Mixture of Gaussian}{1}}
\@writefile{lof}{\contentsline {figure}{\numberline {1}{\ignorespaces One dimensional dataset with two hidden labels (two clusters). We estimate Gaussian distribution for every cluster}}{1}}
\newlabel{im:mixgauss}{{1}{1}}
\@writefile{toc}{\contentsline {section}{\numberline {2}EM algorithm}{3}}
\@writefile{toc}{\contentsline {subsection}{\numberline {2.1}Jensen's inequality}{3}}
\@writefile{lof}{\contentsline {figure}{\numberline {2}{\ignorespaces Toy example of Jensen's inequality.}}{3}}
\newlabel{im:jensen}{{2}{3}}
\@writefile{toc}{\contentsline {subsection}{\numberline {2.2}EM algorithm}{3}}
\newlabel{eq:distrQ}{{9}{4}}
