\relax 
\@writefile{toc}{\contentsline {section}{\numberline {1}Linear regression with one variable}{2}}
\@writefile{lof}{\contentsline {figure}{\numberline {1}{\ignorespaces Example of linear regression fit}}{2}}
\newlabel{linreg}{{1}{2}}
\@writefile{lof}{\contentsline {figure}{\numberline {2}{\ignorespaces Schema of supervised algorithm}}{2}}
\newlabel{im:schema}{{2}{2}}
\newlabel{eq:univarlinreg}{{1}{2}}
\@writefile{toc}{\contentsline {subsection}{\numberline {1.1}Cost function}{3}}
\newlabel{eq:mincost}{{2}{3}}
\newlabel{eq:costFunc}{{3}{3}}
\@writefile{lof}{\contentsline {figure}{\numberline {3}{\ignorespaces Error of fit: "vertical" distance between data points and fitted line.}}{3}}
\newlabel{err}{{3}{3}}
\@writefile{toc}{\contentsline {subsubsection}{\numberline {1.1.1}Intuition of cost function}{3}}
\@writefile{lof}{\contentsline {figure}{\numberline {4}{\ignorespaces Example of cost function with different $\theta _1$ and $\theta _0 = 0$}}{4}}
\newlabel{im:simplTheta}{{4}{4}}
\@writefile{toc}{\contentsline {subsubsection}{\numberline {1.1.2}Probabilistic interpretation}{4}}
\@writefile{toc}{\contentsline {subsection}{\numberline {1.2}Parameter learning}{5}}
\newlabel{eq:grad0}{{10}{5}}
\newlabel{eq:grad1}{{11}{5}}
\newlabel{eq:grad3}{{12}{5}}
\newlabel{eq:grad4}{{13}{5}}
\@writefile{toc}{\contentsline {subsection}{\numberline {1.3}Intuition for gradient descend}{5}}
\@writefile{toc}{\contentsline {subsection}{\numberline {1.4}Result of gradient descend applied to cost function}{5}}
\newlabel{eq:gradsol0}{{14}{5}}
\newlabel{eq:gradsol1}{{15}{5}}
\@writefile{toc}{\contentsline {section}{\numberline {2}Multi variable linear regression}{6}}
\@writefile{toc}{\contentsline {subsection}{\numberline {2.1}Form of hypothesis}{6}}
\newlabel{eq:multivarlinreg}{{16}{6}}
\newlabel{eq:mvlrvector}{{17}{6}}
\@writefile{toc}{\contentsline {subsection}{\numberline {2.2}Gradient descend}{6}}
\newlabel{eq:costFuncMulti}{{18}{6}}
\newlabel{eq:gradMulti0}{{19}{6}}
\newlabel{eq:gradMulti0}{{20}{6}}
\newlabel{eq:gradsol1}{{21}{6}}
\@writefile{toc}{\contentsline {subsubsection}{\numberline {2.2.1}Feature scaling and mean normalization}{7}}
\@writefile{lof}{\contentsline {figure}{\numberline {5}{\ignorespaces Left: features not in similar range. Right: features in similar range.}}{7}}
\newlabel{im:range}{{5}{7}}
\@writefile{toc}{\contentsline {subsection}{\numberline {2.3}Learning rate}{7}}
\@writefile{lof}{\contentsline {figure}{\numberline {6}{\ignorespaces Example of cost function changing with iterations}}{8}}
\newlabel{im:J}{{6}{8}}
\@writefile{toc}{\contentsline {subsection}{\numberline {2.4}Linear regression with higher polynomial and other functions features}{8}}
\@writefile{toc}{\contentsline {subsection}{\numberline {2.5}Locally weighted linear regression - lowess}{9}}
\@writefile{lof}{\contentsline {figure}{\numberline {7}{\ignorespaces Example of locally weighted linear regression. Only subset of examples close to new example are fitted.}}{9}}
\newlabel{im:lwlr}{{7}{9}}
\@writefile{toc}{\contentsline {subsection}{\numberline {2.6}Analytical computing of parameters}{10}}
\@writefile{toc}{\contentsline {subsubsection}{\numberline {2.6.1}Normal equation}{10}}
\@writefile{toc}{\contentsline {subsubsection}{\numberline {2.6.2}Importance of vectorization}{11}}
\newlabel{eq:vectorCost}{{26}{11}}
