\relax 
\@writefile{toc}{\contentsline {section}{\numberline {1}Representation}{1}}
\@writefile{lof}{\contentsline {figure}{\numberline {1}{\ignorespaces Neuron - logistic unit}}{1}}
\newlabel{im:neuron}{{1}{1}}
\newlabel{eq:neuronOut}{{1}{1}}
\@writefile{lof}{\contentsline {figure}{\numberline {2}{\ignorespaces Example of neural network}}{2}}
\newlabel{im:nn}{{2}{2}}
\newlabel{eq:activation21}{{3}{2}}
\newlabel{eq:activation22}{{4}{2}}
\newlabel{eq:activation32}{{5}{2}}
\newlabel{eq:nnhypo}{{6}{2}}
\newlabel{eq:activationZ1}{{7}{2}}
\newlabel{eq:activationZ2}{{8}{2}}
\newlabel{eq:activationZ3}{{9}{2}}
