\relax 
\@writefile{toc}{\contentsline {section}{\numberline {1}Gradient descent with large datasets}{1}}
\@writefile{lof}{\contentsline {figure}{\numberline {1}{\ignorespaces Debugging by plotting}}{3}}
\newlabel{im:SGDDebug}{{1}{3}}
\@writefile{toc}{\contentsline {section}{\numberline {2}Advanced topics}{3}}
\@writefile{toc}{\contentsline {subsection}{\numberline {2.1}Online learning}{3}}
\@writefile{toc}{\contentsline {subsection}{\numberline {2.2}Map reduce and parallelization}{4}}
