\relax 
\@writefile{toc}{\contentsline {section}{\numberline {1}Problem of Bias and variance}{1}}
\@writefile{toc}{\contentsline {section}{\numberline {2}Fundamentals of learning theory}{1}}
\@writefile{toc}{\contentsline {subsection}{\numberline {2.1}Case of finite H}{2}}
