\relax 
\@writefile{toc}{\contentsline {section}{\numberline {1}Large margin classifier}{1}}
\@writefile{toc}{\contentsline {subsection}{\numberline {1.1}Optimization objective}{1}}
\@writefile{lof}{\contentsline {figure}{\numberline {1}{\ignorespaces Left: logistic function. This explains $\theta ^Tx>>0$. Right: logistic regression cost function (red) for case $y=1$ and SVM cost function (blue)}}{1}}
\newlabel{im:analogyLG}{{1}{1}}
\newlabel{eq:SVMcost}{{1}{1}}
\@writefile{toc}{\contentsline {subsection}{\numberline {1.2}Large margin intuition}{1}}
\newlabel{eq:SVMminHighC}{{3}{1}}
\@writefile{toc}{\contentsline {subsection}{\numberline {1.3}Understanding math behind SVM}{2}}
\@writefile{lof}{\contentsline {figure}{\numberline {2}{\ignorespaces SVM is trying to find largest margin}}{2}}
\newlabel{im:margin}{{2}{2}}
\@writefile{lof}{\contentsline {figure}{\numberline {3}{\ignorespaces Optimal decision boundary}}{3}}
\newlabel{im:projection}{{3}{3}}
\@writefile{toc}{\contentsline {section}{\numberline {2}Kernels}{3}}
\@writefile{toc}{\contentsline {subsection}{\numberline {2.1}Kernels I}{3}}
\newlabel{eq:gaussKernel}{{6}{3}}
\@writefile{lof}{\contentsline {figure}{\numberline {4}{\ignorespaces Gaussian kernel. Values $f_i$ are greater if example x is closer to landmark $l_i$ which is mean of Gaussian}}{4}}
\newlabel{im:gausskernel}{{4}{4}}
\@writefile{lof}{\contentsline {figure}{\numberline {5}{\ignorespaces Decision boundary of hypothesis using kernel functions}}{4}}
\newlabel{im:kernelPred}{{5}{4}}
\@writefile{toc}{\contentsline {subsection}{\numberline {2.2}Kernels II}{4}}
\@writefile{toc}{\contentsline {section}{\numberline {3}using SVM}{5}}
\@writefile{toc}{\contentsline {section}{\numberline {4}Margins - intuition}{6}}
\@writefile{toc}{\contentsline {subsection}{\numberline {4.1}Analogy to logistic regression}{6}}
\@writefile{toc}{\contentsline {subsection}{\numberline {4.2}Intuition on decision boundary}{7}}
\@writefile{toc}{\contentsline {section}{\numberline {5}Notation}{7}}
\@writefile{toc}{\contentsline {section}{\numberline {6}Functional and geometrical margin}{7}}
\@writefile{toc}{\contentsline {subsection}{\numberline {6.1}Functional margin}{7}}
\@writefile{toc}{\contentsline {subsection}{\numberline {6.2}Geometrical margin}{8}}
\@writefile{lof}{\contentsline {figure}{\numberline {6}{\ignorespaces Idea of margin. $\gamma ^{(i)}$ represents distance from decision boundary and example $(x^{(i)},y^{(i)}$}}{8}}
\newlabel{im:geomarg}{{6}{8}}
\@writefile{toc}{\contentsline {section}{\numberline {7}Optimization problem}{9}}
\@writefile{toc}{\contentsline {section}{\numberline {8}Lagrange duality}{10}}
\@writefile{toc}{\contentsline {section}{\numberline {9}Using Lagrange optimization in optimal margin classifier}{11}}
\newlabel{eq:lagrangian}{{24}{12}}
\newlabel{eq:minW}{{25}{12}}
\newlabel{eq:minB}{{26}{12}}
\newlabel{eq:dual}{{29}{12}}
\newlabel{eq:pred}{{9}{13}}
\@writefile{toc}{\contentsline {section}{\numberline {10}Kernels}{13}}
\@writefile{toc}{\contentsline {section}{\numberline {11}Soft margin classifier - non separable case and regularization term}{14}}
\@writefile{toc}{\contentsline {section}{\numberline {12}SMO algorithm}{16}}
\@writefile{toc}{\contentsline {subsection}{\numberline {12.1}Coordinate ascend}{16}}
\@writefile{toc}{\contentsline {subsection}{\numberline {12.2}SMO}{16}}
