\relax 
\@writefile{toc}{\contentsline {section}{\numberline {1}Problem description}{1}}
\@writefile{toc}{\contentsline {section}{\numberline {2}Approach: sliding windows}{1}}
\@writefile{toc}{\contentsline {section}{\numberline {3}Lots of data and artificial data}{2}}
\@writefile{toc}{\contentsline {section}{\numberline {4}Improving pipeline}{2}}
